7348:
3.5
7349:
3.1
3.1
3.3
735:
3.1
3.4
7350:
3.6
3.3
3.6
3.4
3.1
3.4
3.5
3.4
3.6
3.6
3.7
3.6
3.1
3.0
3.1
3.0
3.1
3.2
3.4
3.2
3.6
3.6
3.4
3.4
2.9
3.6
2.9
3.6
3.5
3.4
7351:
2.9
2.8
3.2
3.0
2.9
7352:
3.2
3.5
3.4
2.7
3.4
2.9
3.4
3.4
3.4
3.4
3.4
3.1
7353:
3.0
2.9
2.9
2.7
2.8
2.8
2.9
7354:
3.4
3.0
3.6
7355:
3.5
3.5
3.2
3.4
3.3
3.4
3.8
3.5
3.4
3.5
3.4
3.6
3.4
3.4
3.5
3.2
3.9
3.4
3.6
3.5
3.8
3.2
3.4
3.9
3.6
3.9
3.5
3.4
3.5
3.5
3.7
3.5
3.3
4.1
3.6
3.3
3.5
3.2
7356:
3.0
3.2
3.5
3.3
3.8
3.4
3.3
3.3
3.3
3.6
3.6
3.4
3.2
3.7
3.7
3.6
3.3
3.9
3.6
3.3
3.7
3.6
3.8
3.5
3.9
3.8
2.9
3.8
3.3
3.6
3.3
3.6
3.7
3.6
3.7
3.9
3.6
3.2
3.4
3.4
3.3
3.4
3.7
3.7
3.8
3.4
3.3
3.0
3.3
3.3
3.4
3.5
3.6
3.3
3.7
3.4
3.9
3.3
3.6
3.9
3.4
3.3
3.2
3.5
3.8
3.7
3.2
3.7
3.1
3.3
3.7
3.4
3.4
3.7
3.3
3.6
3.5
3.7
3.8
3.4
3.5
3.5
3.3
3.2
3.3
3.3
3.3
3.7
2.8
3.7
3.8
3.6
3.4
3.4
3.4
3.7
4.0
3.4
3.6
3.6
3.5
3.4
3.4
3.5
3.7
3.0
3.4
3.6
3.4
3.5
3.0
3.2
3.8
3.9
3.2
3.5
3.4
3.5
3.1
3.3
3.5
3.4
3.7
3.4
3.5
3.6
3.4
3.6
4.0
3.3
3.4
3.1
3.4
3.3
3.7
3.8
3.4
4.2
3.8
3.6
3.5
3.5
3.4
3.2
3.7
3.5
3.3
4.0
3.4
3.3
3.7
4.2
3.9
3.4
3.4
3.5
4.1
3.5
3.7
3.4
3.9
3.5
3.2
7357:
3.6
4.1
3.8
3.7
3.5
3.5
3.8
3.4
3.7
3.2
4.0
3.8
3.4
3.8
3.2
3.5
3.5
3.2
3.7
4.0
3.6
3.3
3.3
3.8
3.4
3.7
3.5
3.9
3.8
3.9
4.2
3.8
3.6
3.6
3.2
3.3
3.5
3.0
3.6
3.6
3.6
7358:
3.4
3.0
3.8
3.7
7359:
4.0
4.1
3.8
4.2
4.4
3.6
3.9
3.7
3.7
3.5
3.7
3.5
3.8
4.4
3.7
3.7
3.7
3.8
3.6
4.0
3.8
3.4
3.8
3.9
4.0
4.0
3.6
4.1
3.4
4.2
3.8
4.0
736:
3.3
2.6
2.6
7360:
3.9
3.4
3.9
3.7
4.3
4.1
3.9
3.7
3.8
3.6
3.6
3.7
3.9
3.6
4.0
3.8
3.9
3.5
4.3
3.9
7361:
3.6
3.7
3.8
3.4
3.5
4.3
3.7
3.6
3.9
3.9
3.9
3.9
4.0
3.8
3.7
3.7
3.7
7362:
3.0
3.3
3.6
3.3
3.5
4.1
3.5
3.3
3.3
3.6
3.8
3.3
3.6
3.3
3.6
3.9
3.5
3.6
3.3
3.9
3.5
3.6
3.4
3.4
3.4
3.6
4.2
3.8
4.0
2.9
3.8
3.4
3.5
3.6
3.7
3.3
4.0
7363:
2.7
3.2
3.5
3.3
4.0
3.2
3.2
3.6
3.6
3.0
3.2
3.5
3.2
3.3
3.7
3.3
3.4
3.2
3.2
3.0
3.2
3.4
3.3
3.3
3.1
3.3
3.2
3.6
3.5
3.6
3.3
3.6
3.1
3.5
3.7
3.1
3.2
3.5
3.1
3.5
3.3
2.8
3.6
3.6
3.4
3.7
3.2
2.9
3.1
3.8
3.5
3.3
3.5
3.0
3.4
3.5
3.5
3.3
3.2
3.4
3.4
3.3
3.4
3.4
3.3
3.6
3.3
3.4
3.1
3.9
3.2
3.2
3.2
3.1
3.1
3.3
3.6
3.3
3.6
3.3
3.2
3.2
3.3
3.1
3.1
3.5
3.5
3.0
3.5
3.4
3.7
3.2
3.2
3.1
3.2
3.2
3.6
3.4
3.3
3.1
3.2
3.5
3.0
3.5
3.5
3.6
7364:
3.8
4.0
3.6
3.7
4.0
3.6
3.9
3.6
3.9
3.7
3.6
3.7
3.6
3.5
3.8
4.2
3.6
4.0
4.1
3.5
4.1
3.6
3.8
3.6
3.6
3.7
3.7
3.7
3.9
3.8
4.1
4.0
3.9
3.7
3.7
3.2
3.9
3.8
3.9
4.1
3.8
3.8
3.6
3.9
3.9
3.9
3.8
4.1
4.2
3.6
3.9
4.0
3.7
4.0
3.6
3.8
3.8
4.0
3.9
3.8
3.5
3.8
3.4
3.4
3.9
3.8
3.6
3.8
3.8
3.9
3.9
3.8
3.5
3.7
3.7
3.8
3.7
4.0
4.0
4.0
3.7
3.7
3.9
3.7
3.6
3.9
3.6
3.6
3.7
3.9
4.0
3.7
3.4
4.0
3.8
3.8
3.8
3.7
3.9
3.9
3.7
4.1
3.8
3.8
3.7
3.4
3.7
4.0
4.3
3.7
3.9
3.4
4.0
3.9
3.7
3.6
3.7
3.7
3.6
3.8
3.5
3.8
3.7
3.7
3.9
3.5
3.8
3.5
3.7
3.9
3.5
3.7
3.7
4.0
3.8
3.7
3.6
3.5
3.9
3.8
3.9
3.8
3.4
3.7
3.7
3.8
3.8
3.6
3.9
4.0
3.9
4.0
3.8
3.8
3.8
3.5
3.5
3.3
3.9
3.8
3.9
4.0
3.5
3.7
3.8
3.7
3.8
3.9
3.8
3.4
3.9
3.9
3.7
3.7
3.6
3.7
3.4
3.6
3.5
3.4
3.4
4.1
3.6
4.2
3.9
4.1
3.5
4.0
3.6
3.6
3.7
4.0
3.8
3.9
3.7
4.0
3.7
3.9
3.8
4.0
3.7
4.0
3.9
3.5
3.8
3.9
3.9
3.9
3.9
4.2
4.0
4.0
4.1
3.9
3.9
3.8
3.7
3.9
3.8
3.6
3.7
3.7
3.8
3.6
3.8
3.9
3.8
3.6
3.7
3.4
3.9
3.6
3.7
3.7
3.6
3.6
3.9
3.7
3.7
3.9
3.7
3.5
3.5
3.6
3.5
3.8
3.6
3.9
4.1
3.7
3.4
3.6
3.5
4.2
3.8
3.6
3.3
4.1
3.8
3.3
3.7
3.9
3.6
3.8
3.7
3.6
3.5
3.9
4.0
3.8
3.7
3.8
3.7
3.7
3.8
4.1
3.7
3.9
3.5
3.8
3.6
3.5
3.7
3.7
3.7
3.7
3.2
3.6
3.7
4.1
3.6
3.5
3.8
3.7
3.8
3.7
4.0
4.0
3.6
3.9
3.3
3.7
3.6
3.6
3.9
3.6
3.5
4.3
4.0
4.0
7365:
3.2
3.1
3.4
3.5
3.0
3.2
3.2
3.4
3.4
3.2
3.7
3.4
7367:
3.1
2.2
7368:
4.2
3.7
3.7
3.9
3.5
3.6
3.6
3.5
3.7
3.9
3.6
3.4
3.6
3.5
3.8
4.2
3.6
3.9
3.4
3.8
3.6
3.7
3.6
3.9
4.1
3.4
3.8
3.8
7369:
4.0
3.2
3.5
3.5
3.5
3.3
3.5
3.6
3.7
3.4
3.7
3.5
3.5
3.7
3.4
3.4
3.5
3.3
3.6
3.6
3.5
3.8
3.3
4.0
3.4
3.5
3.4
3.6
4.0
3.6
3.9
3.8
737:
3.4
3.7
3.6
3.6
3.9
7370:
4.1
3.7
3.7
3.6
4.0
4.1
3.7
3.7
3.6
3.9
4.1
3.7
3.9
3.6
3.9
3.9
3.6
3.7
3.7
3.7
4.0
3.8
3.6
3.7
3.5
3.7
4.1
4.0
3.7
3.9
3.8
3.8
3.7
3.5
3.8
3.3
4.0
3.8
3.7
3.6
4.0
4.1
3.9
3.8
3.5
3.6
4.1
3.7
3.8
4.0
3.5
3.9
3.9
3.6
3.6
3.9
3.5
3.5
4.1
3.7
3.7
4.2
4.3
3.7
3.7
3.7
4.1
4.0
3.6
3.7
3.7
3.7
4.1
4.1
3.4
3.6
3.8
3.5
3.6
3.7
4.0
3.9
4.0
4.1
3.7
3.8
4.0
3.7
3.8
4.2
3.8
3.8
4.1
3.6
3.7
3.7
3.6
4.0
4.0
3.6
3.9
3.8
3.9
4.1
3.5
4.0
3.9
3.7
3.9
3.9
3.8
3.5
3.9
3.6
3.7
3.6
3.7
4.2
3.4
3.9
4.0
3.7
3.7
3.9
3.3
3.9
4.1
3.8
3.6
4.0
3.9
7371:
4.1
3.4
3.3
3.9
3.2
3.1
3.8
3.7
3.5
3.7
3.5
3.9
3.3
3.5
3.2
3.4
3.9
3.4
3.5
3.4
3.4
3.7
3.2
3.3
3.2
3.2
7372:
3.2
3.4
3.6
3.3
3.3
3.5
3.2
3.4
2.8
3.2
3.0
3.3
3.4
3.0
7373:
3.2
3.6
3.4
3.6
3.2
3.8
3.8
7374:
3.1
3.3
3.1
3.3
3.1
7375:
2.8
2.9
3.6
3.5
3.1
3.0
2.9
3.6
3.2
3.4
7376:
3.1
3.2
3.3
7377:
3.7
3.3
3.6
3.4
2.5
3.2
7378:
3.9
3.5
3.5
3.6
3.6
3.2
3.6
3.3
3.3
3.6
3.6
3.2
3.2
3.8
3.7
3.7
3.8
3.9
3.3
3.7
3.6
3.7
2.6
3.7
4.0
3.6
3.6
3.7
3.5
3.9
3.2
3.7
3.9
3.7
7379:
3.6
3.7
3.6
4.0
3.5
4.2
2.4
3.7
3.7
3.4
3.9
3.4
3.6
3.6
3.6
3.3
3.9
3.5
4.0
3.6
3.5
4.1
3.4
3.5
3.4
4.3
3.1
3.5
3.7
2.9
3.5
3.8
3.8
3.4
3.6
3.5
3.7
3.3
3.9
3.3
3.7
3.5
3.4
3.6
3.3
3.6
3.6
3.7
3.6
3.7
738:
3.2
3.3
2.8
3.2
3.0
3.1
3.4
2.8
7380:
3.5
7381:
3.6
3.0
3.1
3.5
4.0
3.5
3.0
3.5
2.8
3.2
3.2
3.9
3.1
3.6
3.1
3.3
3.7
3.5
3.9
3.5
3.3
3.8
3.6
3.1
3.8
3.6
3.5
3.8
3.3
3.5
3.4
3.7
3.4
3.9
3.4
3.3
3.8
3.5
3.5
3.3
3.6
3.7
3.5
3.7
3.5
3.3
4.1
3.4
3.6
3.3
3.9
3.3
3.4
3.7
3.3
3.4
3.6
3.4
3.3
4.1
3.2
3.5
3.7
3.8
3.2
3.6
3.3
3.2
3.6
3.4
3.6
3.3
3.4
3.6
4.1
3.9
2.8
3.4
3.4
3.9
3.8
3.6
3.3
3.5
3.7
3.5
7382:
4.2
3.6
3.7
3.9
4.3
4.2
4.3
4.2
3.5
3.9
3.6
4.4
3.6
3.6
3.6
3.9
3.7
3.8
3.8
4.4
3.7
3.5
3.6
7383:
3.0
3.2
3.5
3.5
3.2
7384:
3.0
3.4
3.8
3.4
3.4
3.6
3.2
3.5
7385:
3.5
3.4
3.7
3.2
3.0
3.7
7387:
3.6
3.4
2.4
3.4
3.4
3.7
3.7
3.6
3.4
3.5
3.9
3.7
3.6
3.6
3.6
3.5
3.8
3.8
3.5
3.4
3.9
3.8
3.6
3.8
4.0
3.4
3.5
7388:
3.6
3.3
3.1
3.6
3.6
3.6
3.8
3.5
3.5
3.3
7389:
3.0
3.3
3.9
3.3
3.2
3.0
3.3
3.5
3.2
3.5
3.1
3.2
3.1
739:
3.4
3.0
3.7
2.9
3.2
3.0
3.1
2.7
3.2
3.3
2.7
3.3
3.1
3.1
3.3
3.0
3.1
3.0
3.3
2.9
3.2
7390:
3.8
4.3
3.6
4.0
3.9
3.8
3.7
4.0
4.0
4.1
4.0
4.0
3.8
4.0
3.9
3.8
3.8
3.8
3.5
3.6
3.9
4.2
4.3
3.8
4.0
7391:
3.0
3.5
3.4
3.6
3.2
3.3
3.9
3.4
3.6
3.2
3.2
3.4
3.2
3.5
3.0
3.6
3.4
3.6
3.6
3.5
3.2
3.6
3.3
3.2
3.8
3.3
3.4
3.9
3.3
7392:
3.4
3.6
3.5
3.8
3.6
3.6
3.7
4.0
3.6
3.8
3.5
3.9
4.0
3.7
4.1
4.1
3.9
3.9
3.7
3.8
3.9
3.7
3.8
3.6
3.5
3.8
4.0
4.2
4.0
3.7
4.4
3.9
3.9
4.1
7393:
3.8
4.0
3.7
3.6
4.0
4.0
3.4
3.5
3.9
3.9
4.0
3.7
4.0
3.8
3.7
4.4
4.1
4.0
4.3
3.9
3.9
3.9
3.8
4.0
3.8
4.0
3.9
3.7
3.8
3.9
4.3
4.5
3.6
3.9
3.7
4.0
3.9
4.1
4.2
4.1
3.8
3.7
3.9
3.9
3.9
3.9
4.0
3.9
3.7
3.9
3.9
3.8
3.6
4.4
3.9
3.9
4.0
3.9
3.7
4.2
4.1
7394:
3.4
3.4
3.9
2.7
3.4
3.2
3.8
3.6
3.8
3.5
7395:
3.5
3.7
3.7
3.5
2.9
3.4
3.1
4.0
3.6
3.3
3.4
3.5
3.6
3.3
3.7
3.7
3.8
3.9
3.1
3.5
3.5
3.3
3.7
7396:
4.2
3.8
4.1
3.4
4.2
4.0
3.9
3.9
4.2
3.9
4.3
4.2
4.0
4.0
4.1
4.5
3.7
4.1
4.0
4.2
4.3
7397:
3.6
3.5
3.4
3.7
3.9
4.1
3.6
3.3
3.7
4.1
3.9
3.3
3.7
4.0
3.6
3.9
3.3
4.0
3.4
3.3
4.1
3.4
3.7
3.9
3.6
3.5
3.8
4.0
3.1
3.8
3.4
3.6
3.3
3.3
3.2
3.7
3.6
2.9
3.4
4.2
3.5
3.4
3.6
3.7
3.1
3.5
3.6
4.2
4.1
3.7
3.6
3.4
3.8
4.1
3.7
4.0
3.0
3.5
3.5
3.4
4.0
3.8
3.1
3.8
3.8
4.0
3.9
3.3
3.8
3.9
4.1
3.6
3.9
3.7
2.4
3.8
3.4
4.0
4.1
3.5
4.0
3.8
3.2
3.6
3.9
3.5
3.5
3.8
3.5
3.6
3.9
4.0
3.6
3.7
3.6
4.0
3.5
3.6
3.4
3.6
3.4
4.1
3.8
3.8
3.6
3.3
3.6
3.7
3.9
3.7
3.7
7398:
3.3
3.3
3.0
3.3
0.95
