....
----------------------------------------------------------------------
Ran 4 tests in 0.001s

OK
Name             Stmts   Miss Branch BrPart  Cover   Missing
------------------------------------------------------------
Netflix.py          39      3      6      1    91%   24-27, 20->24
TestNetflix.py      28      0      0      0   100%
------------------------------------------------------------
TOTAL               67      3      6      1    95%
