9964:
3.5
3.6
3.8
4.3
3.6
4.2
3.9
4.0
3.6
3.6
3.6
3.7
3.8
3.9
3.8
3.8
3.7
4.3
3.7
3.7
3.7
4.0
4.1
4.0
3.8
3.3
3.3
4.1
3.8
4.0
3.5
4.0
4.0
3.9
3.7
3.7
3.4
3.9
4.1
3.9
9965:
3.8
3.8
3.6
3.3
3.1
3.5
3.4
3.4
9966:
3.8
3.9
3.8
3.7
3.8
3.2
3.9
3.7
3.7
3.6
3.5
4.2
3.5
3.4
3.7
3.8
3.6
3.7
3.8
4.0
3.7
3.6
3.4
3.7
3.5
3.6
3.8
3.3
3.9
3.2
3.9
3.5
3.3
4.1
3.3
3.7
3.6
3.5
3.7
3.5
3.6
3.6
3.5
3.3
3.7
3.4
3.6
3.6
3.6
3.6
3.6
3.5
3.7
3.9
3.4
3.6
3.7
3.5
3.6
3.5
3.7
3.4
3.1
3.7
3.8
3.4
3.5
3.7
3.6
3.7
3.5
3.6
3.6
3.2
3.2
3.4
3.6
3.5
3.3
3.5
4.0
3.4
3.7
3.4
9967:
3.5
2.9
9968:
3.6
4.1
9969:
3.4
3.5
997:
3.7
3.4
3.3
3.8
3.3
3.4
3.3
3.7
4.1
3.3
9970:
3.8
3.8
3.4
4.0
3.9
4.0
3.8
3.9
4.0
3.6
3.8
3.7
3.6
4.2
3.7
3.9
4.4
3.9
3.7
3.8
3.8
3.7
3.6
3.9
4.0
4.1
3.7
3.7
3.7
3.7
3.7
3.9
4.0
4.4
3.9
3.8
3.6
3.4
3.8
4.1
9971:
3.2
3.6
3.8
3.6
9972:
3.4
3.3
3.1
3.3
3.8
2.9
2.9
3.4
3.4
3.6
3.5
3.3
3.3
9974:
3.6
3.3
3.5
3.3
3.6
3.4
3.3
3.6
3.4
3.7
3.3
3.3
3.7
3.3
3.3
3.4
3.5
9975:
2.8
2.2
3.0
2.3
2.8
2.6
2.7
2.1
9976:
3.8
3.5
3.5
3.6
4.0
3.6
3.8
3.5
3.7
3.6
3.8
3.6
3.8
4.0
3.3
3.8
3.5
3.8
4.1
3.5
3.7
3.7
3.6
3.7
3.5
3.8
3.7
4.1
3.7
3.7
9977:
3.7
3.6
3.2
3.4
3.5
3.2
3.2
3.5
3.2
3.5
3.6
3.3
3.5
3.4
3.6
3.5
3.4
3.7
3.4
9978:
3.1
3.2
3.2
3.0
3.1
9979:
4.1
4.1
3.8
4.1
4.2
998:
4.0
3.7
3.2
3.7
3.6
9980:
3.6
3.9
3.4
3.4
3.3
3.1
3.4
3.1
9981:
3.5
4.4
3.3
4.0
3.7
4.0
4.0
3.8
4.2
3.6
3.9
4.1
3.9
3.7
3.5
3.5
4.0
3.9
4.2
4.3
3.9
3.8
3.9
4.0
3.6
3.7
4.2
3.5
4.3
4.1
4.2
3.9
3.6
3.7
4.2
4.2
4.1
3.8
3.4
3.9
4.0
3.5
4.0
3.8
3.8
3.9
4.1
4.1
4.0
4.2
3.9
3.8
4.0
3.6
4.0
3.6
3.7
4.0
4.0
3.4
4.2
3.8
4.0
4.2
3.5
3.4
3.8
3.9
3.9
4.0
3.8
3.7
3.7
3.8
4.2
3.9
3.8
3.7
3.9
4.1
3.6
4.0
3.8
3.8
3.7
4.0
4.0
3.4
3.8
4.1
4.0
3.8
4.1
3.7
3.7
3.9
4.2
4.4
4.0
4.3
3.6
3.6
4.0
3.8
4.1
4.0
3.7
3.7
3.8
3.9
4.3
3.9
4.4
4.4
4.0
3.9
3.9
4.0
4.0
9982:
3.6
3.4
3.6
3.6
3.7
3.9
9983:
3.7
3.5
3.6
4.0
3.5
4.0
3.7
3.6
3.9
3.4
3.8
3.4
3.0
3.6
3.5
3.7
3.8
3.5
3.8
3.0
3.7
4.2
3.9
3.7
3.4
3.5
3.7
3.6
3.4
3.9
3.8
3.1
3.8
4.2
3.5
3.7
3.9
3.8
3.7
4.3
9984:
3.7
3.7
3.9
3.6
3.5
3.8
3.4
3.7
3.6
3.5
3.6
4.0
3.6
3.7
4.1
3.7
4.2
3.9
3.7
4.3
3.6
3.4
3.9
3.8
4.3
3.9
3.7
3.7
3.7
3.9
3.7
3.8
3.8
4.0
3.6
3.8
3.5
4.3
3.6
3.5
4.0
3.9
3.7
3.9
4.1
3.5
3.1
3.8
3.8
3.6
3.3
3.9
3.6
4.0
3.8
3.5
3.6
4.0
3.6
4.0
3.9
4.0
3.8
3.7
4.0
3.7
3.8
3.8
3.8
3.5
3.4
3.7
3.8
4.1
3.0
4.1
4.0
3.6
3.5
3.7
3.7
4.1
3.6
3.8
4.0
3.6
9985:
3.1
3.5
3.8
3.8
3.5
3.6
3.5
3.5
3.5
3.8
3.7
3.6
3.7
3.4
3.1
3.4
3.2
4.1
3.6
3.2
3.6
3.6
4.1
3.5
3.5
3.4
3.5
3.4
3.1
3.4
3.5
3.3
3.2
3.5
3.5
3.4
3.0
3.5
3.3
3.5
3.6
3.4
3.2
3.6
3.4
3.7
2.9
3.4
3.8
3.8
3.6
3.9
3.4
3.3
3.4
3.2
4.1
3.8
3.4
3.6
3.1
3.2
3.6
3.7
3.4
3.8
3.5
2.9
3.3
9986:
3.5
3.7
3.7
3.5
3.8
3.6
3.5
3.6
3.3
3.5
3.6
3.5
3.6
3.9
3.9
3.7
3.5
3.9
3.4
3.5
3.5
3.5
3.7
3.5
3.4
4.1
3.3
3.9
3.6
3.3
3.5
3.5
3.6
3.6
3.7
4.0
3.6
3.5
3.5
3.7
3.4
3.6
3.7
4.0
2.7
3.6
3.5
3.5
3.9
3.9
3.7
3.7
3.5
3.9
3.6
3.1
3.8
3.5
3.9
9987:
3.6
3.3
3.4
4.1
3.6
3.8
4.1
4.3
3.5
3.8
3.7
3.8
3.1
3.3
3.7
3.7
3.7
3.5
3.8
3.4
4.0
3.3
3.9
3.5
3.9
3.6
3.6
4.2
3.8
3.9
3.8
4.2
3.8
3.9
3.6
3.5
3.4
3.6
3.8
4.0
3.8
3.7
3.3
3.7
3.7
3.9
3.8
3.7
3.8
3.7
3.9
3.5
3.6
3.9
3.5
3.8
3.6
3.7
3.8
9988:
4.0
3.6
3.5
3.9
4.2
3.6
3.6
3.8
3.8
3.7
4.0
3.8
4.0
3.9
4.0
3.5
3.7
4.0
4.2
4.1
4.1
3.9
3.9
3.5
9989:
3.0
3.3
3.1
3.4
999:
3.2
3.2
3.0
3.3
3.1
3.1
2.9
3.0
2.8
3.3
3.3
3.3
2.8
3.2
3.2
2.6
2.9
9990:
4.1
3.5
3.3
4.1
3.8
3.8
3.6
4.0
3.8
9991:
3.5
3.8
3.7
3.4
3.4
3.9
3.7
3.1
3.2
3.8
3.4
3.2
3.5
4.2
3.1
3.6
4.0
3.6
3.2
3.9
3.8
3.5
3.7
4.1
3.5
3.5
3.7
3.3
3.7
3.7
3.7
3.7
3.8
4.0
3.5
3.9
3.5
3.6
3.9
2.9
3.9
3.7
3.8
3.5
3.7
3.8
3.7
4.3
3.7
3.5
3.8
3.6
3.1
3.6
3.4
3.7
3.9
3.1
3.4
3.4
3.4
4.1
4.0
3.6
3.5
4.0
3.2
3.8
3.4
3.5
4.0
3.6
3.8
3.7
3.6
3.6
3.7
3.4
3.5
3.8
4.0
3.6
3.8
3.6
3.7
3.2
3.1
4.1
3.8
3.2
3.9
3.6
3.4
3.6
3.6
3.6
3.6
3.7
3.5
3.7
4.1
3.8
3.4
3.6
3.6
3.7
3.6
3.8
3.9
3.9
3.9
3.6
3.6
3.5
9992:
2.6
2.7
9993:
4.5
3.8
3.5
3.7
3.7
3.6
3.7
9994:
3.7
3.4
3.6
3.6
3.6
9995:
3.4
3.4
3.4
3.1
3.2
3.6
3.3
3.9
3.3
3.3
3.3
3.3
3.6
3.3
3.4
3.8
3.5
3.1
2.9
3.5
3.3
3.4
3.4
3.2
3.3
3.5
3.5
3.7
3.6
3.2
3.7
3.7
3.3
3.7
3.3
3.6
3.2
3.5
3.6
3.5
3.7
3.4
3.7
3.5
3.5
3.4
3.6
3.4
3.8
3.6
3.3
3.7
3.1
3.6
3.3
3.6
3.3
3.5
3.3
3.9
3.5
3.8
3.5
3.8
2.9
3.6
3.8
3.4
3.6
3.6
3.3
3.5
3.5
3.6
3.7
3.4
3.7
3.7
3.7
3.4
3.1
3.1
3.5
3.7
3.5
3.1
3.6
3.5
4.1
3.3
3.6
3.4
3.5
3.4
3.2
3.5
3.7
3.7
3.5
3.1
3.4
4.0
3.6
3.8
3.2
3.5
3.8
3.3
3.3
3.0
3.7
3.5
3.5
3.4
3.5
3.4
3.5
3.6
3.7
3.6
3.8
3.4
3.3
3.5
3.4
3.8
3.3
3.5
3.2
3.6
2.7
3.5
3.4
3.3
3.5
3.5
3.1
3.3
3.3
3.6
3.6
3.2
3.4
4.0
3.2
3.4
3.7
3.0
3.6
3.9
3.9
3.4
3.8
3.4
3.5
3.4
3.2
3.5
3.6
3.6
3.6
3.3
3.5
3.7
3.6
3.7
3.7
3.7
3.6
3.7
3.9
3.7
3.4
3.5
3.3
3.1
3.4
3.5
3.5
3.7
3.6
3.6
3.4
3.6
3.4
3.4
3.8
3.4
2.9
3.9
3.4
3.7
3.5
3.4
3.5
3.5
3.6
2.6
3.3
3.8
3.3
3.6
9996:
4.0
3.6
3.4
3.6
4.1
3.6
3.8
3.4
3.2
3.2
3.5
3.8
3.6
3.1
3.2
3.5
3.1
3.4
3.4
9997:
3.7
3.8
3.7
3.8
9998:
3.2
3.4
3.7
9999:
2.6
1.05
