......
----------------------------------------------------------------------
Ran 6 tests in 3.550s

OK
Name             Stmts   Miss Branch BrPart  Cover   Missing
------------------------------------------------------------
Netflix.py          53      3      8      1    93%   26-29, 22->26
TestNetflix.py      37      0      0      0   100%
------------------------------------------------------------
TOTAL               90      3      8      1    96%
