1:
3.5
3.2
3.4
4.6
3.6
3.8
3.3
3.6
3.9
3.5
2.5
3.4
4.0
3.9
1.8
4.1
3.7
4.4
4.0
4.1
3.0
5.0
3.4
10:
3.4
3.1
1000:
3.5
3.2
3.0
5.0
3.9
3.8
3.6
4.2
3.4
3.1
3.6
3.9
3.5
4.6
4.2
3.3
3.3
3.3
3.5
4.0
4.0
4.2
1.6
3.4
4.4
3.4
3.9
10000:
3.9
4.1
10001:
3.4
4.1
3.7
1.9
4.0
3.2
3.3
3.8
3.8
2.6
4.0
4.0
2.8
4.0
3.6
3.8
4.2
10002:
4.5
3.5
4.9
4.2
10003:
2.1
10004:
4.5
3.5
3.7
3.3
4.1
3.7
3.9
3.7
3.7
3.6
3.5
3.3
3.7
3.2
5.0
4.0
3.9
3.9
4.0
4.5
3.7
3.4
3.2
3.6
4.7
3.2
3.6
3.8
2.6
4.0
4.0
10005:
3.9
4.4
3.5
3.4
4.0
10006:
4.0
3.5
4.2
3.0
10007:
2.2
2.9
2.5
2.3
2.1
2.6
2.3
3.0
2.5
2.9
2.3
2.8
2.5
10008:
4.7
3.4
3.5
3.0
4.3
4.0
4.0
10009:
4.0
3.7
4.9
2.9
2.7
3.6
1001:
3.5
3.8
4.1
3.3
4.4
4.2
4.0
3.9
2.9
3.9
3.9
4.4
3.1
4.0
3.6
3.5
4.2
4.0
3.2
3.5
3.5
3.9
3.5
3.0
3.8
3.1
3.8
3.9
4.2
4.3
3.9
5.0
3.2
3.7
3.5
3.7
4.3
3.0
3.6
4.0
4.2
3.2
3.9
4.2
4.3
4.1
3.7
3.3
3.4
4.3
3.4
1.6
2.8
3.8
4.4
4.4
3.8
3.5
3.7
3.4
3.6
3.4
3.3
3.1
4.3
3.4
3.0
3.2
4.2
3.7
3.1
3.5
3.8
3.2
2.5
4.0
2.8
2.7
3.9
3.8
4.5
4.2
2.8
3.1
3.7
3.4
3.6
4.4
3.6
3.2
4.3
3.7
3.6
4.0
3.3
2.9
3.3
5.0
3.5
4.2
3.7
4.0
3.3
3.3
3.4
3.7
3.9
4.2
3.9
2.9
3.3
3.6
3.6
3.2
3.6
2.6
3.2
4.4
4.0
3.3
3.5
3.7
3.8
3.7
3.5
3.5
3.3
3.8
3.9
3.6
3.7
4.0
3.8
3.6
10010:
2.5
2.3
2.3
3.1
2.7
2.3
2.6
2.3
2.0
2.7
2.3
2.0
2.4
1.9
3.0
2.3
2.1
2.8
1.4
2.4
2.1
1.9
2.4
10011:
3.8
3.5
10012:
3.6
4.5
3.5
3.6
4.1
4.2
2.9
3.0
3.5
3.8
4.2
3.5
3.6
10013:
3.8
3.3
3.6
3.9
3.6
3.7
3.3
3.9
3.6
4.1
3.0
4.4
3.9
3.7
3.3
3.5
3.0
3.4
3.5
3.0
3.3
3.2
3.5
4.1
4.0
3.3
3.5
2.9
3.3
3.7
3.1
3.4
3.2
4.1
3.5
3.2
3.6
4.3
4.3
3.0
4.4
3.6
4.0
4.1
3.5
3.0
3.5
3.7
3.4
3.9
3.3
3.4
3.8
4.0
3.4
2.8
4.1
10014:
3.2
4.2
3.0
4.3
3.6
10015:
3.6
3.0
1.9
3.3
3.7
3.3
3.8
3.6
3.7
3.5
3.7
3.4
3.2
3.9
3.9
3.3
3.5
3.9
3.2
3.8
4.9
3.9
4.4
1.9
3.0
3.1
4.2
3.5
10016:
1.9
2.0
2.4
2.7
3.8
10017:
2.6
3.5
3.2
10018:
4.4
4.1
2.8
3.0
3.4
3.7
3.6
3.1
1.8
4.0
3.2
3.9
3.0
3.7
3.0
3.8
3.5
3.6
3.3
3.6
4.5
3.0
4.0
4.1
3.3
4.0
3.8
3.8
4.0
4.0
10019:
3.6
2.0
3.9
3.2
4.5
4.4
3.7
2.8
4.0
3.7
4.7
3.1
3.2
3.4
4.0
3.8
4.0
3.8
3.5
4.6
4.0
4.0
4.0
3.7
4.1
3.8
3.3
3.4
3.6
4.0
3.9
3.0
4.0
4.2
3.4
4.2
1.7
4.1
4.1
4.3
4.2
4.4
4.3
4.0
4.4
3.1
4.0
4.4
3.7
3.7
3.3
3.5
4.1
3.5
1.0
1.7
2.8
3.4
4.6
3.5
3.1
3.6
4.8
3.5
4.2
5.0
3.5
4.9
3.8
1002:
3.7
2.8
3.5
3.7
3.0
3.8
4.3
1.7
3.7
3.8
4.3
3.6
3.5
3.2
10020:
3.8
3.9
3.6
4.0
3.7
3.5
3.6
4.1
4.0
3.8
3.7
4.7
4.0
3.4
3.8
3.7
4.1
3.3
4.0
3.4
4.2
3.2
3.6
3.6
3.1
1.9
4.0
10021:
2.6
3.0
3.1
2.7
10022:
1.5
3.6
3.2
3.1
3.8
3.6
2.8
2.8
10023:
3.9
3.8
3.9
3.5
4.8
3.5
3.4
3.8
3.4
3.9
4.4
10024:
3.7
4.1
3.7
4.0
3.7
3.8
3.2
3.4
3.9
3.9
10025:
3.3
10027:
4.4
3.8
3.6
3.5
2.8
3.5
3.2
4.7
3.0
4.3
3.6
3.7
4.0
3.3
3.7
4.5
3.4
3.9
4.0
3.9
3.1
3.6
3.6
3.8
4.1
3.9
4.2
4.3
5.0
4.3
4.4
4.0
3.1
3.6
4.2
4.0
4.6
3.9
3.9
3.4
4.2
4.4
4.9
3.6
3.5
4.3
3.9
3.8
4.1
4.2
3.7
4.1
3.5
3.4
3.3
3.7
3.3
3.4
4.2
4.0
3.5
3.2
4.4
3.1
4.3
4.9
3.3
4.0
3.1
4.1
4.0
4.0
4.3
4.0
4.4
3.8
4.1
3.5
2.7
3.5
4.6
4.7
3.2
3.8
3.9
4.1
3.6
3.9
10028:
3.0
3.2
3.0
4.0
4.5
2.9
4.3
10029:
3.0
4.0
3.9
2.7
10031:
3.6
3.1
4.0
2.7
4.1
3.3
2.9
1.6
3.0
10032:
3.1
4.8
4.2
4.3
4.1
1.8
3.5
3.3
3.8
1.8
3.1
4.2
4.7
3.4
4.2
2.7
3.6
3.4
3.3
3.6
3.2
3.5
3.3
3.4
3.8
3.0
2.9
3.5
4.5
3.2
3.5
3.8
4.1
3.7
2.6
4.0
3.6
3.2
3.4
3.6
3.5
3.6
3.5
3.0
3.3
3.6
3.9
10033:
3.6
3.1
2.4
3.4
3.2
2.5
3.5
2.8
3.5
2.8
3.5
3.2
4.5
3.7
10034:
1.4
3.3
10035:
2.2
4.3
4.2
4.0
4.1
4.1
3.7
3.3
3.2
3.4
3.7
3.6
3.7
3.8
3.5
3.5
3.7
4.0
3.9
4.9
10036:
4.0
3.2
3.4
3.1
3.7
3.7
2.8
3.6
1.9
2.9
3.0
3.5
4.0
3.8
4.5
3.9
3.5
3.8
1.9
2.9
3.6
3.2
4.8
3.8
3.5
4.1
3.7
3.9
3.9
2.8
3.4
2.9
2.8
3.1
2.8
3.3
3.6
3.6
3.3
3.8
3.2
3.5
4.1
3.7
3.8
4.0
4.4
5.0
3.0
3.9
3.1
3.7
3.4
2.8
3.5
3.6
3.4
4.7
3.4
3.9
3.6
4.2
3.1
4.3
2.9
4.3
3.6
3.5
3.7
3.8
4.5
4.0
3.8
3.2
3.7
4.0
4.1
3.1
4.0
4.0
3.6
3.5
4.4
3.9
2.6
3.6
3.3
3.7
3.8
3.2
2.5
4.1
3.4
4.0
3.4
3.1
3.1
3.8
3.3
4.0
4.0
2.7
3.4
4.3
3.4
2.7
4.7
3.0
3.5
3.7
3.6
3.2
3.2
3.5
3.3
3.5
4.5
3.2
3.4
3.8
3.6
3.7
3.8
3.5
3.8
3.1
3.7
4.4
3.5
3.2
4.2
3.0
3.1
5.0
3.5
3.1
3.8
3.6
4.0
2.8
4.3
4.1
3.6
3.5
3.0
4.6
3.2
3.7
3.3
3.2
4.1
3.8
4.0
3.4
3.4
3.3
4.7
3.8
3.5
4.3
3.9
3.5
3.8
3.9
3.5
3.5
3.9
4.2
4.0
3.3
3.2
3.4
4.0
3.5
3.8
3.8
3.4
3.9
3.8
4.2
3.5
4.2
3.1
3.7
4.5
3.4
3.5
3.2
3.9
3.6
3.4
3.1
3.8
4.5
3.9
2.9
3.5
4.1
3.0
3.6
3.6
3.6
3.3
3.8
2.8
4.8
3.6
4.4
4.0
3.4
3.4
3.3
4.2
3.5
3.3
10037:
4.3
3.2
3.6
4.1
4.0
4.0
3.5
2.9
3.6
4.0
3.7
3.6
3.6
3.6
10038:
4.1
3.2
3.0
3.2
3.0
3.5
3.5
2.8
10039:
2.0
1004:
2.3
2.0
3.1
2.7
3.0
2.9
2.5
3.6
2.2
3.0
3.1
3.4
3.4
3.5
2.5
2.2
2.8
3.0
2.7
2.9
3.0
3.5
3.5
1.6
2.5
2.1
2.9
2.9
2.6
2.9
2.5
10040:
3.2
3.0
3.7
10041:
4.1
2.9
3.2
2.7
3.0
2.9
3.7
3.0
1.0
2.7
0.5
3.3
3.7
2.3
3.2
3.3
3.1
2.6
2.8
2.4
2.8
3.2
2.8
3.0
3.3
2.3
3.2
2.4
3.1
2.4
3.2
10042:
3.8
3.1
3.7
3.3
3.7
4.7
4.3
3.5
4.3
3.4
3.9
3.5
4.0
3.6
3.8
4.0
3.0
4.5
4.2
3.8
5.0
4.1
2.8
3.6
3.8
4.3
4.2
2.5
3.9
3.8
4.0
3.9
3.7
4.1
4.0
4.4
3.8
4.5
3.5
3.1
3.9
3.5
3.5
3.4
4.5
4.2
3.8
3.3
3.8
3.2
3.4
4.1
4.3
2.0
4.7
4.2
2.9
3.9
3.1
3.5
3.7
3.9
3.8
3.8
2.9
3.1
3.5
4.7
3.8
3.4
3.4
3.8
3.8
3.4
3.0
4.3
4.1
3.6
3.7
4.0
3.2
4.4
3.8
3.7
4.2
3.4
4.3
3.9
3.1
4.3
3.4
3.8
4.9
3.6
3.7
3.6
3.4
3.8
3.8
3.5
4.0
4.1
3.1
4.5
4.0
3.6
3.7
3.7
4.5
3.9
4.3
3.7
3.9
4.0
3.6
3.7
3.8
3.3
3.8
4.3
3.2
4.3
3.6
4.5
4.0
4.7
3.1
3.4
3.8
3.3
3.4
3.8
3.7
1.9
3.6
3.7
4.4
4.7
3.3
5.0
3.6
4.5
3.6
3.1
3.8
3.6
3.9
2.9
3.3
4.0
3.4
3.9
4.7
3.7
4.0
3.1
3.5
2.9
3.2
4.0
3.1
4.2
3.7
3.8
3.2
4.2
3.5
3.4
3.6
3.7
4.2
4.2
3.3
3.8
4.1
3.5
4.0
4.3
4.6
3.5
3.7
5.0
4.8
3.5
3.8
4.3
3.4
3.0
3.6
4.1
3.4
3.7
4.0
3.2
4.1
4.4
4.2
3.7
3.8
3.7
4.0
4.1
3.8
4.0
3.9
2.4
4.0
3.8
3.8
3.5
3.4
3.5
4.3
4.2
4.4
4.1
4.7
4.0
3.7
4.0
3.7
4.0
4.2
4.1
3.8
3.9
4.1
3.4
4.5
3.6
3.8
3.8
4.1
5.0
4.3
3.6
5.0
3.4
4.2
3.7
3.4
4.5
4.3
4.1
4.0
4.7
4.5
4.1
3.7
3.9
3.0
3.7
4.5
3.6
3.4
4.7
3.4
4.0
4.0
3.2
3.7
4.0
3.5
4.3
2.9
3.6
4.3
4.0
3.8
3.5
3.7
4.2
3.6
3.4
4.6
3.3
3.8
3.7
4.4
4.0
3.7
3.4
4.0
3.5
3.9
3.5
3.6
4.2
3.5
3.9
3.9
3.2
4.0
3.4
3.4
3.3
3.5
4.0
3.5
3.6
4.0
3.8
3.8
3.8
3.1
3.7
3.7
4.2
3.9
3.5
3.7
3.8
5.0
3.9
3.7
4.3
4.0
4.2
4.1
3.5
4.0
3.5
4.1
4.0
4.2
4.0
4.1
3.8
4.3
3.7
4.2
5.0
3.1
4.1
3.5
4.0
4.2
4.6
3.5
4.2
4.2
4.4
4.2
4.8
3.4
3.9
4.0
4.3
3.4
4.2
4.4
3.4
4.1
3.9
3.3
3.9
4.2
4.1
3.5
4.0
3.4
3.4
3.7
3.8
3.7
3.5
3.2
3.5
4.5
4.6
4.5
3.7
3.6
0.97
