.....
----------------------------------------------------------------------
Ran 5 tests in 0.000s

OK
Name             Stmts   Miss Branch BrPart  Cover   Missing
------------------------------------------------------------
Netflix.py          55      6      8      1    89%   23-24, 66-67, 94-95, 22->23
TestNetflix.py      30      0      0      0   100%
------------------------------------------------------------
TOTAL               85      6      8      1    92%

