......
----------------------------------------------------------------------
Ran 6 tests in 0.001s

OK
Name             Stmts   Miss Branch BrPart  Cover   Missing
------------------------------------------------------------
Netflix.py          54      5     10      3    88%   37-40, 100, 102, 33->37, 99->100, 101->102
TestNetflix.py      38      0      0      0   100%
------------------------------------------------------------
TOTAL               92      5     10      3    92%
