10551:
3.1795
3.292
2.546
3.3005
3.215
3.347
3.0785
3.053
3.5875
3.8375
4.0875
2.8655
10552:
4.244
3.8369999999999997
4.1899999999999995
3.628
4.1065000000000005
3.9265
3.997
3.9059999999999997
3.8495
3.9605
3.919
3.8840000000000003
4.011
4.1005
3.7725
3.8449999999999998
3.6165
3.9779999999999998
3.919
3.873
3.9050000000000002
3.646
3.9450000000000003
3.7584999999999997
3.738
4.221500000000001
3.737
4.208
3.9245
3.698
4.025
3.8555
3.793
3.967
3.8975
4.0440000000000005
3.7335000000000003
3.794
3.669
4.0440000000000005
3.7035
4.452999999999999
3.9505
4.318
3.7235
3.848
3.511
10554:
4.0809999999999995
4.0615000000000006
3.7925
4.1315
3.5865
3.9615
4.0125
3.7
3.8040000000000003
4.1530000000000005
4.1594999999999995
3.634
3.849
3.98
3.7755
4.2895
3.3129999999999997
3.5629999999999997
3.846
4.4559999999999995
3.5469999999999997
3.9459999999999997
3.576
3.6435
4.131
3.967
3.854
10555:
2.8755
3.069
3.0225
3.4095
3.133
3.206
3.2969999999999997
3.5305
3.209
10556:
4.321
3.4400000000000004
4.346
3.746
3.4124999999999996
3.396
3.691
3.6285
3.5490000000000004
3.766
3.832
4.266
3.6675
4.096
3.535
3.471
3.9075
3.9295
3.624
3.638
3.4745
3.5895
3.822
3.846
3.9295
10557:
3.1155
10558:
3.6994999999999996
3.405
3.6695
3.605
3.0885
3.5564999999999998
3.3025
4.255
4.005
3.493
3.7855
3.405
3.7264999999999997
3.755
10559:
4.0215
3.8625
3.9314999999999998
3.4855
3.8575
4.038
1056:
3.498
3.584
3.2715
3.1105
3.3995
10560:
3.7365000000000004
4.019
3.7865
3.9235
3.68
3.8545000000000003
3.5365
3.9610000000000003
4.2455
4.474
3.5465
3.873
3.6195000000000004
3.5955000000000004
4.0245
3.8365
3.5575
4.0920000000000005
4.5365
3.6355000000000004
4.143000000000001
4.173
3.8545000000000003
3.7175000000000002
4.359
3.8645000000000005
3.58
3.862
4.140000000000001
4.288
3.9315
4.0365
3.6765
4.1635
3.4030000000000005
3.849
4.0865
3.6425
3.6565000000000003
3.569
3.8365
4.1825
3.9075
3.7395000000000005
3.861
4.019500000000001
3.4325
3.87
3.8605
3.9385000000000003
3.9595000000000002
4.051500000000001
3.4210000000000003
3.6590000000000003
4.2265
3.7865
3.8525
3.9895
3.8485000000000005
4.203
4.075
3.519
3.8685
4.1675
3.843
3.641
4.019
3.878
4.1245
3.64
3.683
3.9930000000000003
4.178000000000001
3.894
3.8895
3.5875000000000004
4.203
4.1435
4.3825
3.8295000000000003
3.9000000000000004
4.051
3.8760000000000003
3.4560000000000004
3.6615
4.5365
4.129
4.2555
3.734
3.7070000000000003
3.83
3.7030000000000003
3.6125000000000003
10561:
3.957
3.3305
3.518
3.7800000000000002
3.7685
3.6245000000000003
3.6975
4.0825
3.7735
3.6225
3.7805
3.7035
3.87
4.2940000000000005
3.5625
3.7409999999999997
3.7560000000000002
3.8655
3.74
3.44
3.645
3.362
4.156000000000001
3.6574999999999998
3.6975
3.2245
3.8914999999999997
3.6775
3.705
3.94
3.591
3.737
3.8015
3.689
4.1395
3.7015000000000002
3.8674999999999997
3.782
3.6195
3.4825
3.58
3.512
3.4775
3.448
3.373
3.822
3.7024999999999997
3.6799999999999997
3.65
3.7315
3.4684999999999997
3.791
3.7275
3.3085
3.7525
3.8529999999999998
2.8979999999999997
3.7329999999999997
4.3385
3.3465
3.822
3.8775
3.76
3.9314999999999998
3.6235
3.7225
3.5995
3.6825
3.7735
3.7005
3.6615
3.601
3.6864999999999997
3.5214999999999996
3.5454999999999997
3.8285
3.9925
3.7295
4.0595
3.794
3.605
3.9775
3.8434999999999997
3.466
3.8235
3.9365
3.5995
3.524
3.7809999999999997
3.493
3.8545
3.7525
3.8465
3.41
4.0105
3.6245000000000003
3.823
3.182
3.8775
3.534
3.41
4.034
3.7695
3.6630000000000003
3.6405
3.7165
3.2525
3.7235
3.654
3.746
3.888
3.922
3.69
3.57
3.7984999999999998
3.544
3.94
3.6225
3.7685
3.798
4.105
3.711
3.9725
3.5995
3.2775
3.7565
3.9015
3.6765
3.508
3.711
3.5934999999999997
3.868
3.857
4.008
4.3774999999999995
3.5125
4.019
3.487
3.7275
3.433
3.841
3.6055
4.068
3.893
3.7584999999999997
3.4965
3.899
3.7664999999999997
3.9105
3.5965
3.6464999999999996
3.76
4.212
3.48
4.1225000000000005
3.6710000000000003
3.586
3.711
3.961
3.5035
3.4050000000000002
3.7424999999999997
3.403
3.686
3.623
3.3964999999999996
3.9815
3.5789999999999997
3.449
3.3775
3.7880000000000003
3.5374999999999996
3.5355
4.0865
3.8905
3.502
3.7325
3.8695
3.7184999999999997
4.0440000000000005
4.0184999999999995
3.5919999999999996
3.3255
3.9775
3.8775
3.5709999999999997
4.1690000000000005
3.9715
3.224
3.926
3.807
3.2525
3.957
3.2645
3.695
4.1775
3.935
3.929
3.565
3.5175
3.937
3.8555
3.594
3.634
3.8114999999999997
3.5025
3.9505
4.021
3.532
3.4295
3.485
3.8689999999999998
3.7325
3.3775
3.8945
4.0035
3.8155
3.758
3.993
3.803
3.9015
3.5415
3.6135
3.6275
3.859
3.5625
3.5060000000000002
3.7554999999999996
3.8015
3.8345000000000002
3.8555
2.9299999999999997
3.5975
3.935
3.4314999999999998
4.276
3.7695
3.8305
3.9205
3.969
4.082
2.9905
3.6435
3.904
3.5955
3.4835000000000003
3.915
3.533
3.5774999999999997
3.81
3.4345
4.054
3.4684999999999997
3.8274999999999997
3.753
3.652
2.8775
3.614
3.617
3.7720000000000002
3.668
3.7439999999999998
3.593
3.77
4.0095
3.251
3.5235
3.79
3.617
3.7925
3.6630000000000003
3.534
3.8635
3.6550000000000002
3.261
3.6799999999999997
3.907
3.6790000000000003
4.013999999999999
3.6315
3.4524999999999997
3.8405
3.449
3.3905
3.6275
3.6345
3.838
4.109500000000001
3.8685
3.9535
3.8455
3.635
3.534
3.5025
3.5665
3.6215
3.6755
4.0649999999999995
3.762
3.41
3.6995
3.2809999999999997
3.7800000000000002
3.5975
3.863
4.1465
3.6725
3.7075
3.5385
3.6790000000000003
4.0735
3.23
3.6355
3.4195
3.6275
4.292
3.1725
3.5774999999999997
3.784
3.793
3.9785
3.633
3.7065
4.1274999999999995
3.7329999999999997
2.3775
3.739
3.7
3.4775
3.7035
3.743
4.2055
3.7375
3.69
3.3964999999999996
4.3365
3.8049999999999997
3.6710000000000003
3.6399999999999997
3.646
3.961
3.6365
3.5835
3.3914999999999997
3.9365
3.3625
3.89
3.3775
4.1995000000000005
3.4635
3.9025
3.7885
3.6704999999999997
4.0120000000000005
3.49
3.638
3.5275
3.4695
3.935
3.461
3.6929999999999996
3.6784999999999997
3.6065
3.556
3.7375
3.6275
3.953
3.8064999999999998
4.246
3.5125
3.5140000000000002
3.8954999999999997
3.6384999999999996
3.8125
3.5839999999999996
3.7664999999999997
3.9795
3.7525
3.8105
3.7365
4.077500000000001
3.901
4.2545
3.6710000000000003
3.1864999999999997
3.7145
3.548
3.409
4.3115000000000006
3.481
3.8965
3.69
3.9274999999999998
3.558
3.49
3.8245
3.7565
3.794
3.7865
3.6565
3.83
2.8775
4.0535
3.8935
3.846
3.73
3.7385
3.658
3.794
3.7135
3.6455
3.73
3.907
3.7489999999999997
3.32
3.7885
3.7
3.798
3.6485
3.589
4.0024999999999995
3.2565
3.3674999999999997
3.936
3.8775
3.8475
3.9105
3.798
3.5895
3.646
3.857
3.988
3.809
3.798
3.4745
3.6275
3.496
3.7845
3.5985
3.748
3.9055
4.0024999999999995
3.999
3.7329999999999997
3.7475
3.7409999999999997
3.7215
3.9755
3.6425
3.635
4.245
4.317
3.534
3.58
3.561
3.7275
4.0275
4.2065
4.182
3.461
3.423
3.409
3.423
4.0325
3.7275
3.9815
3.5374999999999996
3.932
3.2515
4.1274999999999995
3.594
3.5229999999999997
3.9815
3.447
3.428
3.646
3.798
3.7409999999999997
3.9625
3.817
3.6275
3.5965
3.692
3.439
3.8005
3.4615
3.6195
3.9659999999999997
3.6955
2.961
3.6205
3.8825
3.565
3.2329999999999997
3.8225
3.7560000000000002
3.344
3.933
3.699
3.5655
3.7664999999999997
3.8335
3.94
3.682
4.007
3.666
3.9775
3.69
3.9805
3.7965
3.4955
3.854
3.7315
3.235
3.6174999999999997
3.734
3.961
3.802
4.025
3.4675000000000002
3.8095
3.8775
3.6665
3.4255
4.2235
3.758
3.0605
3.7295
3.669
3.5285
3.65
3.8274999999999997
3.5404999999999998
3.5795
3.447
3.5355
3.798
3.6275
3.501
3.9859999999999998
3.5965
3.879
3.8834999999999997
3.9465
3.347
4.045
3.5925000000000002
3.4705
3.339
3.464
3.8225
3.9775
3.949
3.7880000000000003
3.785
3.4715
3.8315
3.4909999999999997
3.75
3.487
3.711
3.7794999999999996
3.8715
3.5495
4.1129999999999995
3.4695
3.4635
3.315
4.1754999999999995
3.711
3.0905
3.924
3.815
3.8615
3.3665000000000003
4.073
3.9555
3.8395
3.609
3.317
4.0735
3.55
4.0440000000000005
3.6405
3.527
3.7325
3.7815
3.5875
3.931
3.7005
3.541
3.7695
3.536
4.074
4.0255
3.7405
4.274
3.5025
3.7525
3.5774999999999997
3.89
4.0920000000000005
3.3215
3.698
3.9495
3.0555
3.8040000000000003
3.73
3.8339999999999996
3.6715
3.901
3.7925
3.961
3.75
3.425
3.763
4.0645
4.000500000000001
3.7475
3.2865
3.5025
3.738
4.16
3.7525
3.6775
3.7525
3.7205
3.5065
4.0945
3.8025
3.5839999999999996
3.7809999999999997
3.6805
3.6485
4.3025
3.6085000000000003
3.7329999999999997
4.2195
3.509
4.229
3.4265
4.1274999999999995
3.5709999999999997
3.9034999999999997
4.053
3.8129999999999997
3.7215
3.7184999999999997
3.758
3.9575
4.125500000000001
3.5869999999999997
3.6275
4.0009999999999994
3.814
4.027
3.9895
3.2685
4.103
3.69
3.692
3.949
3.911
4.086
3.7135
3.7235
3.745
3.211
3.4035
3.642
4.121
3.5629999999999997
3.8369999999999997
4.0375
3.294
3.7275
3.3259999999999996
3.7845
3.9445
3.7169999999999996
3.5605
3.4545
3.4844999999999997
3.4775
4.3774999999999995
3.6870000000000003
3.3775
3.3025
3.3964999999999996
3.793
3.395
3.726
3.8775
3.5595
3.3485
4.000500000000001
3.9175
3.7595
3.7735
3.403
3.6935000000000002
3.6275
3.7409999999999997
3.658
3.9175
3.94
3.211
3.9875
3.4509999999999996
3.269
3.5214999999999996
3.919
3.6814999999999998
3.761
3.536
4.3115000000000006
3.659
3.9775
4.045999999999999
3.5629999999999997
3.8594999999999997
3.6215
3.926
3.3775
3.452
3.909
3.661
3.692
3.5715
3.7595
3.396
4.0440000000000005
4.2385
3.5380000000000003
4.1035
4.083
4.1205
3.8455
3.9475
3.7329999999999997
3.4345
3.6479999999999997
3.6205
3.8434999999999997
3.5745
3.416
3.7375
3.705
3.726
3.575
4.173
3.9185
3.8775
3.2045
3.6195
3.7145
4.0024999999999995
3.623
3.5995
3.299
3.609
3.8434999999999997
3.5665
3.4705
3.8045
3.2775
3.742
3.2
3.7725
4.0120000000000005
3.643
3.644
3.636
3.706
3.6790000000000003
3.73
3.9925
3.8739999999999997
3.6955
3.4655
3.865
3.6814999999999998
3.8775
3.4985
3.445
3.8674999999999997
3.844
4.027
4.1370000000000005
3.758
3.787
3.6775
3.585
3.8775
3.855
3.7845
3.8495
3.8775
3.8465
4.15
3.3145
3.9855
3.634
4.243
3.9805
3.444
3.5469999999999997
3.5305
3.498
3.695
3.6565
3.7720000000000002
4.3774999999999995
4.056
3.7595
3.8495
3.9465
3.6325
3.5244999999999997
3.7264999999999997
3.9939999999999998
3.711
3.4895
3.8475
3.7065
3.815
3.4965
3.9285
3.7935
3.9255
4.0965
3.6645
3.633
3.3899999999999997
3.5789999999999997
3.862
3.832
3.8135
4.1274999999999995
3.747
3.8209999999999997
4.0995
3.565
3.9295
3.7175000000000002
3.495
3.9565
3.801
3.855
3.6155
3.929
3.5374999999999996
4.147
3.623
4.153499999999999
3.699
3.815
3.511
3.848
3.7305
4.3205
3.9335
3.5244999999999997
3.2525
3.745
3.5885
3.375
3.8419999999999996
3.7640000000000002
3.5285
3.7695
3.4939999999999998
3.38
3.7119999999999997
3.7775
3.1425
3.5765000000000002
4.061999999999999
3.961
3.98
3.69
4.029999999999999
3.602
3.8255
3.6319999999999997
3.883
3.3985
4.0024999999999995
3.806
3.6014999999999997
3.3525
3.8775
3.4435000000000002
3.7935
3.472
3.2215
3.408
3.5975
3.662
3.5564999999999998
3.1275
3.815
3.8965
3.7005
3.949
3.654
3.6155
3.3594999999999997
4.306
3.738
3.7865
3.365
3.519
3.708
4.167
3.832
3.279
3.9565
3.6925
3.572
4.0295000000000005
3.8575
3.344
3.5835
3.6715
3.7664999999999997
3.426
3.9465
3.669
3.8775
4.0055
3.8175
3.8965
3.9
3.6645
3.6014999999999997
3.5229999999999997
3.8775
3.6215
3.7855
3.6525
3.29
3.8885
3.4545
3.929
3.456
3.794
4.1195
4.1274999999999995
3.7405
3.9859999999999998
3.806
4.178
3.949
3.8289999999999997
3.9775
3.4429999999999996
3.615
3.6845
3.73
3.6275
3.2845
3.6025
3.5004999999999997
3.5084999999999997
3.768
4.183
3.9779999999999998
3.6639999999999997
3.684
3.929
3.1875
3.457
3.8129999999999997
3.9635
3.838
3.7365
3.6319999999999997
4.0065
3.7385
3.2775
3.2664999999999997
3.6254999999999997
4.2675
3.9585
3.44
3.418
4.3774999999999995
3.9485
3.9819999999999998
3.5865
3.961
3.683
4.0815
3.6225
3.7649999999999997
3.285
3.785
3.8225
3.7775
3.537
3.4435000000000002
3.6755
3.604
4.1434999999999995
3.897
3.5564999999999998
3.949
3.9835
3.551
3.6630000000000003
3.5065
3.7385
3.4509999999999996
3.9885
3.7375
3.864
3.715
3.9545
3.211
3.6630000000000003
3.566
3.949
3.401
3.425
3.9495
3.5774999999999997
4.102
4.077999999999999
3.6635
3.745
2.8775
3.3775
3.732
3.2195
3.261
3.5515
3.836
4.3774999999999995
3.774
4.0489999999999995
3.8594999999999997
3.2485
4.1259999999999994
3.7075
3.564
3.544
3.4865
3.4844999999999997
3.87
3.9145
3.7634999999999996
3.748
3.677
3.7675
3.5255
3.5725
3.971
3.8775
3.6645
3.7405
3.832
4.101
3.5309999999999997
3.5389999999999997
3.7344999999999997
3.9775
4.0275
3.891
3.5285
3.4555
3.9955
3.3594999999999997
3.9125
3.544
4.0705
3.5675
3.7095000000000002
4.111
3.7915
4.1225000000000005
3.638
3.7865
3.2755
3.496
3.811
3.4625
3.5155
3.8114999999999997
3.7184999999999997
3.6479999999999997
3.7845
3.5685000000000002
3.6929999999999996
4.074999999999999
3.6845
4.019
3.1275
3.928
4.2170000000000005
3.3405
3.4775
3.943
3.5004999999999997
3.5625
3.722
3.5244999999999997
3.908
4.0725
3.7735
3.319
4.137499999999999
4.0965
3.961
3.716
4.0895
4.18
3.653
4.0335
3.8594999999999997
3.7424999999999997
3.7365
3.7775
3.6574999999999998
3.992
3.6555
4.208
3.7915
3.6704999999999997
3.9274999999999998
3.73
3.7880000000000003
3.202
3.7489999999999997
3.7714999999999996
3.7824999999999998
3.6995
3.434
3.404
3.7295
3.5395
3.534
3.1185
3.6505
3.889
3.707
3.6445
4.109500000000001
3.699
3.83
3.8775
3.9625
3.495
3.9565
3.727
4.327500000000001
4.083
3.8345000000000002
3.7485
4.0024999999999995
3.3369999999999997
3.9274999999999998
3.7305
3.815
3.393
3.7315
3.4535
3.5835
3.6455
3.8129999999999997
3.7640000000000002
3.4215
3.7664999999999997
3.5705
3.529
3.8185000000000002
3.416
3.8865
3.841
3.9875
3.7755
4.0024999999999995
3.793
3.6885
3.634
3.923
3.0004999999999997
3.87
4.163
3.9274999999999998
3.7245
4.234500000000001
3.3449999999999998
3.827
3.526
3.681
3.8165
3.4575
4.1865000000000006
3.8775
3.536
3.823
3.617
3.6109999999999998
3.4234999999999998
3.9055
3.832
3.0895
3.678
3.5205
3.4655
3.606
3.6975
3.6275
3.3114999999999997
3.6035
4.1145
4.1415
3.481
3.859
3.737
3.551
3.684
4.3645
3.933
3.4509999999999996
3.8775
3.4204999999999997
4.2524999999999995
3.7344999999999997
3.5475
3.529
3.618
3.8145
3.69
3.822
3.4844999999999997
3.7525
3.722
3.6685
4.039
3.7885
2.6515
3.8775
3.351
3.8455
3.551
3.886
3.426
3.8874999999999997
3.902
3.634
3.4165
3.674
3.1645
3.7845
3.9125
3.6975
3.8775
3.3285
3.356
3.5965
3.613
3.7184999999999997
3.7355
3.3775
3.4705
3.7824999999999998
3.6375
3.96
3.6955
3.593
3.9375
3.7439999999999998
3.7525
3.6719999999999997
3.269
4.087
3.7815
4.015000000000001
3.9625
3.8954999999999997
3.582
3.8274999999999997
3.5404999999999998
4.0024999999999995
4.159
3.496
4.026
4.225
3.044
3.945
3.3005
3.57
4.0965
3.5745
3.511
3.6605
3.518
3.7065
3.871
3.8775
3.7865
3.8125
3.3855
3.6995
3.6494999999999997
3.511
4.149
3.6225
3.2845
3.532
3.9419999999999997
3.8034999999999997
3.815
4.056
3.6555
3.784
3.852
3.713
3.5305
3.8645
4.2315000000000005
3.8775
3.4909999999999997
3.6174999999999997
3.7569999999999997
3.657
4.3774999999999995
3.905
4.024
3.7584999999999997
3.754
3.984
3.7855
3.839
3.8945
3.4145
4.0275
3.771
3.6864999999999997
3.7625
3.569
3.669
3.3685
4.0440000000000005
4.0184999999999995
3.3415
3.761
3.667
3.8575
3.6384999999999996
4.1835
3.416
3.5105
3.5095
3.8155
3.5305
3.4065
3.6315
3.803
3.6055
3.7584999999999997
3.7165
3.838
3.534
3.711
3.44
3.621
3.4885
3.7845
3.2569999999999997
3.8555
10562:
3.609
3.8080000000000003
3.0945
3.33
2.455
3.455
3.6345
0.82
