...
----------------------------------------------------------------------
Ran 3 tests in 0.055s

OK
Name             Stmts   Miss Branch BrPart  Cover   Missing
------------------------------------------------------------
Netflix.py          65      5     14      3    90%   25-28, 70, 90, 21->25, 68->70, 89->90
TestNetflix.py      42      0      0      0   100%
------------------------------------------------------------
TOTAL              107      5     14      3    93%
